…
### Get Thesis Details

``` r
details <- detail(phd_theses$detail_id[1])
#> ℹ Fetching thesis details...
#> ✔ Retrieved details for thesis

details |>
  tidyr::pivot_longer(
    cols = everything(),
    names_to = "colname",
    values_to = "colvalue"
  ) |>
  print(n = 23)
#> # A tibble: 24 × 2
#>    colname         colvalue                                                     
#>    <chr>           <chr>                                                        
#>  1 thesis_no       634695                                                       
#>  2 title_original  Çevre vergileri üzerine üç makale                            
#>  3 title_translation Three papers on environmental taxes                        
#>  4 author          MUSTAFA EMİR YÜCEL                                           
#>  5 advisor         PROF. DR. TÜRKMEN GÖKSEL                                     
#>  6 co_advisor      <NA>                                                         
#>  7 university      Ankara Üniversitesi                                          
#>  8 institute       Sosyal Bilimler Enstitüsü                                    
#>  9 division        İktisat Ana Bilim Dalı                                       
#> 10 year            2020                                                         
#> 11 pages           117                                                          
#> 12 thesis_type_tr  Doktora                                                      
#> 13 thesis_type_en  Doctorate                                                    
#> 14 language_tr     Türkçe                                                       
#> 15 language_en     Turkish                                                      
#> 16 subject_tr      Ekonomi                                                      
#> 17 subject_en      Economics                                                    
#> 18 abstract_original     Bu tez çalışması, çevre vergilerinin ve bu vergilerden elde …
#> 19 abstract_translation  This thesis, theoretically and empirically analyzed the effe…
#> 20 keywords_tr     Uluslararası ticaret; Vergiler; Çevre ekonomisi; Çevre kirli…
#> 21 keywords_en     International trade; Taxes; Environmental economics; Environ…
#> 22 access_status   open                                                         
#> 23 pdf_url         https://tez.yok.gov.tr/UlusalTezMerkezi/TezGoster?key=_F5QEp…
#> # ℹ 1 more row
```
…
